tests/data/questa_counter.vcd
$date
	Tue Jul  8 15:36:41 2025
$end
$version
	QuestaSim Version 2024.2
$end
$timescale
	1ns
$end

$scope module tb_counter $end
$var wire 1 ! clk $end
$var wire 1 " reset_n $end
$var wire 1 # data [3] $end
$var wire 1 $ data [2] $end
$var wire 1 % data [1] $end
$var wire 1 & data [0] $end

$scope module uut $end
$var wire 1 ! clk $end
$var wire 1 " reset_n $end
$var wire 1 # data [3] $end
$var wire 1 $ data [2] $end
$var wire 1 % data [1] $end
$var wire 1 & data [0] $end
$var wire 1 ' out_reg [3] $end
$var wire 1 ( out_reg [2] $end
$var wire 1 ) out_reg [1] $end
$var wire 1 * out_reg [0] $end
$upscope $end
$upscope $end
$enddefinitions $end
#0
$dumpvars
0!
0"
0#
0$
0%
0&
0'
0(
0)
0*
$end
#5
1!
#10
0!
#15
1!
#20
0!
1"
#25
1!
1*
1&
#30
0!
#35
1!
0*
1)
0&
1%
#40
0!
#45
1!
1*
1&
#50
0!
#55
1!
0*
0)
1(
0&
0%
1$
#60
0!
#65
1!
1*
1&
#70
0!
#75
1!
0*
1)
0&
1%
#80
0!
#85
1!
1*
1&
#90
0!
#95
1!
0*
0)
0(
1'
0&
0%
0$
1#
#100
0!
0"
0'
0#
#105
1!
#110
0!
#115
1!
#120
0!
#125
1!
#130
0!
#135
1!
#140
0!
#145
1!
#150
0!
1"
#155
1!
1*
1&
#160
0!
#165
1!
0*
1)
0&
1%
